%YAML 1.1
%TAG !u! tag:unity3d.com,2011:
--- !u!181963792 &2655988077585873504
Preset:
  m_ObjectHideFlags: 0
  m_CorrespondingSourceObject: {fileID: 0}
  m_PrefabInstance: {fileID: 0}
  m_PrefabAsset: {fileID: 0}
  m_Name: EditorUtils
  m_TargetType:
    m_NativeTypeID: 114
    m_ManagedTypePPtr: {fileID: 11500000, guid: 11cd799dd5d718a478b11762d36fc6a2,
      type: 3}
    m_ManagedTypeFallback: 
  m_Properties:
  - target: {fileID: 0}
    propertyPath: m_Enabled
    value: 1
    objectReference: {fileID: 0}
  - target: {fileID: 0}
    propertyPath: m_EditorHideFlags
    value: 0
    objectReference: {fileID: 0}
  - target: {fileID: 0}
    propertyPath: m_EditorClassIdentifier
    value: 
    objectReference: {fileID: 0}
  - target: {fileID: 0}
    propertyPath: lineElementTypes.Array.size
    value: 5
    objectReference: {fileID: 0}
  - target: {fileID: 0}
    propertyPath: lineElementTypes.Array.data[0].elementType
    value: 3
    objectReference: {fileID: 0}
  - target: {fileID: 0}
    propertyPath: lineElementTypes.Array.data[0].texture
    value: 
    objectReference: {fileID: 2800000, guid: c4c548a339b4d41a590928c0c98934a7, type: 3}
  - target: {fileID: 0}
    propertyPath: lineElementTypes.Array.data[1].elementType
    value: 2
    objectReference: {fileID: 0}
  - target: {fileID: 0}
    propertyPath: lineElementTypes.Array.data[1].texture
    value: 
    objectReference: {fileID: 2800000, guid: d86bada962f6eec4095aeea4ef0f88ff, type: 3}
  - target: {fileID: 0}
    propertyPath: lineElementTypes.Array.data[2].elementType
    value: 4
    objectReference: {fileID: 0}
  - target: {fileID: 0}
    propertyPath: lineElementTypes.Array.data[2].texture
    value: 
    objectReference: {fileID: 2800000, guid: b875350b2f0fbc646b1ac56b6894ba73, type: 3}
  - target: {fileID: 0}
    propertyPath: lineElementTypes.Array.data[3].elementType
    value: 5
    objectReference: {fileID: 0}
  - target: {fileID: 0}
    propertyPath: lineElementTypes.Array.data[3].texture
    value: 
    objectReference: {fileID: 2800000, guid: 3f3f9b731e5367f4c93faa2c003d3703, type: 3}
  - target: {fileID: 0}
    propertyPath: lineElementTypes.Array.data[4].elementType
    value: 6
    objectReference: {fileID: 0}
  - target: {fileID: 0}
    propertyPath: lineElementTypes.Array.data[4].texture
    value: 
    objectReference: {fileID: 2800000, guid: 9847f3efa13f2514781df61245c2f336, type: 3}
  - target: {fileID: 0}
    propertyPath: _boxStyle.m_Name
    value: 
    objectReference: {fileID: 0}
  - target: {fileID: 0}
    propertyPath: _boxStyle.m_Normal.m_Background
    value: 
    objectReference: {fileID: 2800000, guid: de901b443cb403e438e259382de2f1ed, type: 3}
  - target: {fileID: 0}
    propertyPath: _boxStyle.m_Normal.m_ScaledBackgrounds.Array.size
    value: 0
    objectReference: {fileID: 0}
  - target: {fileID: 0}
    propertyPath: _boxStyle.m_Normal.m_TextColor.r
    value: 1
    objectReference: {fileID: 0}
  - target: {fileID: 0}
    propertyPath: _boxStyle.m_Normal.m_TextColor.g
    value: 1
    objectReference: {fileID: 0}
  - target: {fileID: 0}
    propertyPath: _boxStyle.m_Normal.m_TextColor.b
    value: 1
    objectReference: {fileID: 0}
  - target: {fileID: 0}
    propertyPath: _boxStyle.m_Normal.m_TextColor.a
    value: 1
    objectReference: {fileID: 0}
  - target: {fileID: 0}
    propertyPath: _boxStyle.m_Hover.m_Background
    value: 
    objectReference: {fileID: 2800000, guid: de901b443cb403e438e259382de2f1ed, type: 3}
  - target: {fileID: 0}
    propertyPath: _boxStyle.m_Hover.m_ScaledBackgrounds.Array.size
    value: 0
    objectReference: {fileID: 0}
  - target: {fileID: 0}
    propertyPath: _boxStyle.m_Hover.m_TextColor.r
    value: 1
    objectReference: {fileID: 0}
  - target: {fileID: 0}
    propertyPath: _boxStyle.m_Hover.m_TextColor.g
    value: 1
    objectReference: {fileID: 0}
  - target: {fileID: 0}
    propertyPath: _boxStyle.m_Hover.m_TextColor.b
    value: 1
    objectReference: {fileID: 0}
  - target: {fileID: 0}
    propertyPath: _boxStyle.m_Hover.m_TextColor.a
    value: 1
    objectReference: {fileID: 0}
  - target: {fileID: 0}
    propertyPath: _boxStyle.m_Active.m_Background
    value: 
    objectReference: {fileID: 2800000, guid: de901b443cb403e438e259382de2f1ed, type: 3}
  - target: {fileID: 0}
    propertyPath: _boxStyle.m_Active.m_ScaledBackgrounds.Array.size
    value: 0
    objectReference: {fileID: 0}
  - target: {fileID: 0}
    propertyPath: _boxStyle.m_Active.m_TextColor.r
    value: 1
    objectReference: {fileID: 0}
  - target: {fileID: 0}
    propertyPath: _boxStyle.m_Active.m_TextColor.g
    value: 1
    objectReference: {fileID: 0}
  - target: {fileID: 0}
    propertyPath: _boxStyle.m_Active.m_TextColor.b
    value: 1
    objectReference: {fileID: 0}
  - target: {fileID: 0}
    propertyPath: _boxStyle.m_Active.m_TextColor.a
    value: 1
    objectReference: {fileID: 0}
  - target: {fileID: 0}
    propertyPath: _boxStyle.m_Focused.m_Background
    value: 
    objectReference: {fileID: 2800000, guid: de901b443cb403e438e259382de2f1ed, type: 3}
  - target: {fileID: 0}
    propertyPath: _boxStyle.m_Focused.m_ScaledBackgrounds.Array.size
    value: 0
    objectReference: {fileID: 0}
  - target: {fileID: 0}
    propertyPath: _boxStyle.m_Focused.m_TextColor.r
    value: 1
    objectReference: {fileID: 0}
  - target: {fileID: 0}
    propertyPath: _boxStyle.m_Focused.m_TextColor.g
    value: 1
    objectReference: {fileID: 0}
  - target: {fileID: 0}
    propertyPath: _boxStyle.m_Focused.m_TextColor.b
    value: 1
    objectReference: {fileID: 0}
  - target: {fileID: 0}
    propertyPath: _boxStyle.m_Focused.m_TextColor.a
    value: 1
    objectReference: {fileID: 0}
  - target: {fileID: 0}
    propertyPath: _boxStyle.m_OnNormal.m_Background
    value: 
    objectReference: {fileID: 0}
  - target: {fileID: 0}
    propertyPath: _boxStyle.m_OnNormal.m_ScaledBackgrounds.Array.size
    value: 0
    objectReference: {fileID: 0}
  - target: {fileID: 0}
    propertyPath: _boxStyle.m_OnNormal.m_TextColor.r
    value: 1
    objectReference: {fileID: 0}
  - target: {fileID: 0}
    propertyPath: _boxStyle.m_OnNormal.m_TextColor.g
    value: 1
    objectReference: {fileID: 0}
  - target: {fileID: 0}
    propertyPath: _boxStyle.m_OnNormal.m_TextColor.b
    value: 1
    objectReference: {fileID: 0}
  - target: {fileID: 0}
    propertyPath: _boxStyle.m_OnNormal.m_TextColor.a
    value: 1
    objectReference: {fileID: 0}
  - target: {fileID: 0}
    propertyPath: _boxStyle.m_OnHover.m_Background
    value: 
    objectReference: {fileID: 0}
  - target: {fileID: 0}
    propertyPath: _boxStyle.m_OnHover.m_ScaledBackgrounds.Array.size
    value: 0
    objectReference: {fileID: 0}
  - target: {fileID: 0}
    propertyPath: _boxStyle.m_OnHover.m_TextColor.r
    value: 0
    objectReference: {fileID: 0}
  - target: {fileID: 0}
    propertyPath: _boxStyle.m_OnHover.m_TextColor.g
    value: 0
    objectReference: {fileID: 0}
  - target: {fileID: 0}
    propertyPath: _boxStyle.m_OnHover.m_TextColor.b
    value: 0
    objectReference: {fileID: 0}
  - target: {fileID: 0}
    propertyPath: _boxStyle.m_OnHover.m_TextColor.a
    value: 1
    objectReference: {fileID: 0}
  - target: {fileID: 0}
    propertyPath: _boxStyle.m_OnActive.m_Background
    value: 
    objectReference: {fileID: 0}
  - target: {fileID: 0}
    propertyPath: _boxStyle.m_OnActive.m_ScaledBackgrounds.Array.size
    value: 0
    objectReference: {fileID: 0}
  - target: {fileID: 0}
    propertyPath: _boxStyle.m_OnActive.m_TextColor.r
    value: 0
    objectReference: {fileID: 0}
  - target: {fileID: 0}
    propertyPath: _boxStyle.m_OnActive.m_TextColor.g
    value: 0
    objectReference: {fileID: 0}
  - target: {fileID: 0}
    propertyPath: _boxStyle.m_OnActive.m_TextColor.b
    value: 0
    objectReference: {fileID: 0}
  - target: {fileID: 0}
    propertyPath: _boxStyle.m_OnActive.m_TextColor.a
    value: 1
    objectReference: {fileID: 0}
  - target: {fileID: 0}
    propertyPath: _boxStyle.m_OnFocused.m_Background
    value: 
    objectReference: {fileID: 0}
  - target: {fileID: 0}
    propertyPath: _boxStyle.m_OnFocused.m_ScaledBackgrounds.Array.size
    value: 0
    objectReference: {fileID: 0}
  - target: {fileID: 0}
    propertyPath: _boxStyle.m_OnFocused.m_TextColor.r
    value: 0
    objectReference: {fileID: 0}
  - target: {fileID: 0}
    propertyPath: _boxStyle.m_OnFocused.m_TextColor.g
    value: 0
    objectReference: {fileID: 0}
  - target: {fileID: 0}
    propertyPath: _boxStyle.m_OnFocused.m_TextColor.b
    value: 0
    objectReference: {fileID: 0}
  - target: {fileID: 0}
    propertyPath: _boxStyle.m_OnFocused.m_TextColor.a
    value: 1
    objectReference: {fileID: 0}
  - target: {fileID: 0}
    propertyPath: _boxStyle.m_Border.m_Left
    value: 0
    objectReference: {fileID: 0}
  - target: {fileID: 0}
    propertyPath: _boxStyle.m_Border.m_Right
    value: 0
    objectReference: {fileID: 0}
  - target: {fileID: 0}
    propertyPath: _boxStyle.m_Border.m_Top
    value: 0
    objectReference: {fileID: 0}
  - target: {fileID: 0}
    propertyPath: _boxStyle.m_Border.m_Bottom
    value: 0
    objectReference: {fileID: 0}
  - target: {fileID: 0}
    propertyPath: _boxStyle.m_Margin.m_Left
    value: 0
    objectReference: {fileID: 0}
  - target: {fileID: 0}
    propertyPath: _boxStyle.m_Margin.m_Right
    value: 0
    objectReference: {fileID: 0}
  - target: {fileID: 0}
    propertyPath: _boxStyle.m_Margin.m_Top
    value: 0
    objectReference: {fileID: 0}
  - target: {fileID: 0}
    propertyPath: _boxStyle.m_Margin.m_Bottom
    value: 0
    objectReference: {fileID: 0}
  - target: {fileID: 0}
    propertyPath: _boxStyle.m_Padding.m_Left
    value: 0
    objectReference: {fileID: 0}
  - target: {fileID: 0}
    propertyPath: _boxStyle.m_Padding.m_Right
    value: 0
    objectReference: {fileID: 0}
  - target: {fileID: 0}
    propertyPath: _boxStyle.m_Padding.m_Top
    value: 0
    objectReference: {fileID: 0}
  - target: {fileID: 0}
    propertyPath: _boxStyle.m_Padding.m_Bottom
    value: 0
    objectReference: {fileID: 0}
  - target: {fileID: 0}
    propertyPath: _boxStyle.m_Overflow.m_Left
    value: 0
    objectReference: {fileID: 0}
  - target: {fileID: 0}
    propertyPath: _boxStyle.m_Overflow.m_Right
    value: 0
    objectReference: {fileID: 0}
  - target: {fileID: 0}
    propertyPath: _boxStyle.m_Overflow.m_Top
    value: 0
    objectReference: {fileID: 0}
  - target: {fileID: 0}
    propertyPath: _boxStyle.m_Overflow.m_Bottom
    value: 0
    objectReference: {fileID: 0}
  - target: {fileID: 0}
    propertyPath: _boxStyle.m_Font
    value: 
    objectReference: {fileID: 0}
  - target: {fileID: 0}
    propertyPath: _boxStyle.m_FontSize
    value: 0
    objectReference: {fileID: 0}
  - target: {fileID: 0}
    propertyPath: _boxStyle.m_FontStyle
    value: 1
    objectReference: {fileID: 0}
  - target: {fileID: 0}
    propertyPath: _boxStyle.m_Alignment
    value: 4
    objectReference: {fileID: 0}
  - target: {fileID: 0}
    propertyPath: _boxStyle.m_WordWrap
    value: 0
    objectReference: {fileID: 0}
  - target: {fileID: 0}
    propertyPath: _boxStyle.m_RichText
    value: 1
    objectReference: {fileID: 0}
  - target: {fileID: 0}
    propertyPath: _boxStyle.m_TextClipping
    value: 0
    objectReference: {fileID: 0}
  - target: {fileID: 0}
    propertyPath: _boxStyle.m_ImagePosition
    value: 0
    objectReference: {fileID: 0}
  - target: {fileID: 0}
    propertyPath: _boxStyle.m_ContentOffset.x
    value: 0
    objectReference: {fileID: 0}
  - target: {fileID: 0}
    propertyPath: _boxStyle.m_ContentOffset.y
    value: 0
    objectReference: {fileID: 0}
  - target: {fileID: 0}
    propertyPath: _boxStyle.m_FixedWidth
    value: 0
    objectReference: {fileID: 0}
  - target: {fileID: 0}
    propertyPath: _boxStyle.m_FixedHeight
    value: 0
    objectReference: {fileID: 0}
  - target: {fileID: 0}
    propertyPath: _boxStyle.m_StretchWidth
    value: 1
    objectReference: {fileID: 0}
  - target: {fileID: 0}
    propertyPath: _boxStyle.m_StretchHeight
    value: 0
    objectReference: {fileID: 0}
  - target: {fileID: 0}
    propertyPath: _emptyStyle.m_Name
    value: 
    objectReference: {fileID: 0}
  - target: {fileID: 0}
    propertyPath: _emptyStyle.m_Normal.m_Background
    value: 
    objectReference: {fileID: 0}
  - target: {fileID: 0}
    propertyPath: _emptyStyle.m_Normal.m_ScaledBackgrounds.Array.size
    value: 0
    objectReference: {fileID: 0}
  - target: {fileID: 0}
    propertyPath: _emptyStyle.m_Normal.m_TextColor.r
    value: 1
    objectReference: {fileID: 0}
  - target: {fileID: 0}
    propertyPath: _emptyStyle.m_Normal.m_TextColor.g
    value: 0.6462264
    objectReference: {fileID: 0}
  - target: {fileID: 0}
    propertyPath: _emptyStyle.m_Normal.m_TextColor.b
    value: 0.6462264
    objectReference: {fileID: 0}
  - target: {fileID: 0}
    propertyPath: _emptyStyle.m_Normal.m_TextColor.a
    value: 1
    objectReference: {fileID: 0}
  - target: {fileID: 0}
    propertyPath: _emptyStyle.m_Hover.m_Background
    value: 
    objectReference: {fileID: 0}
  - target: {fileID: 0}
    propertyPath: _emptyStyle.m_Hover.m_ScaledBackgrounds.Array.size
    value: 0
    objectReference: {fileID: 0}
  - target: {fileID: 0}
    propertyPath: _emptyStyle.m_Hover.m_TextColor.r
    value: 1
    objectReference: {fileID: 0}
  - target: {fileID: 0}
    propertyPath: _emptyStyle.m_Hover.m_TextColor.g
    value: 0.6839622
    objectReference: {fileID: 0}
  - target: {fileID: 0}
    propertyPath: _emptyStyle.m_Hover.m_TextColor.b
    value: 0.6839622
    objectReference: {fileID: 0}
  - target: {fileID: 0}
    propertyPath: _emptyStyle.m_Hover.m_TextColor.a
    value: 1
    objectReference: {fileID: 0}
  - target: {fileID: 0}
    propertyPath: _emptyStyle.m_Active.m_Background
    value: 
    objectReference: {fileID: 0}
  - target: {fileID: 0}
    propertyPath: _emptyStyle.m_Active.m_ScaledBackgrounds.Array.size
    value: 0
    objectReference: {fileID: 0}
  - target: {fileID: 0}
    propertyPath: _emptyStyle.m_Active.m_TextColor.r
    value: 1
    objectReference: {fileID: 0}
  - target: {fileID: 0}
    propertyPath: _emptyStyle.m_Active.m_TextColor.g
    value: 0.4764151
    objectReference: {fileID: 0}
  - target: {fileID: 0}
    propertyPath: _emptyStyle.m_Active.m_TextColor.b
    value: 0.4764151
    objectReference: {fileID: 0}
  - target: {fileID: 0}
    propertyPath: _emptyStyle.m_Active.m_TextColor.a
    value: 1
    objectReference: {fileID: 0}
  - target: {fileID: 0}
    propertyPath: _emptyStyle.m_Focused.m_Background
    value: 
    objectReference: {fileID: 0}
  - target: {fileID: 0}
    propertyPath: _emptyStyle.m_Focused.m_ScaledBackgrounds.Array.size
    value: 0
    objectReference: {fileID: 0}
  - target: {fileID: 0}
    propertyPath: _emptyStyle.m_Focused.m_TextColor.r
    value: 0
    objectReference: {fileID: 0}
  - target: {fileID: 0}
    propertyPath: _emptyStyle.m_Focused.m_TextColor.g
    value: 0
    objectReference: {fileID: 0}
  - target: {fileID: 0}
    propertyPath: _emptyStyle.m_Focused.m_TextColor.b
    value: 0
    objectReference: {fileID: 0}
  - target: {fileID: 0}
    propertyPath: _emptyStyle.m_Focused.m_TextColor.a
    value: 1
    objectReference: {fileID: 0}
  - target: {fileID: 0}
    propertyPath: _emptyStyle.m_OnNormal.m_Background
    value: 
    objectReference: {fileID: 0}
  - target: {fileID: 0}
    propertyPath: _emptyStyle.m_OnNormal.m_ScaledBackgrounds.Array.size
    value: 0
    objectReference: {fileID: 0}
  - target: {fileID: 0}
    propertyPath: _emptyStyle.m_OnNormal.m_TextColor.r
    value: 0
    objectReference: {fileID: 0}
  - target: {fileID: 0}
    propertyPath: _emptyStyle.m_OnNormal.m_TextColor.g
    value: 0
    objectReference: {fileID: 0}
  - target: {fileID: 0}
    propertyPath: _emptyStyle.m_OnNormal.m_TextColor.b
    value: 0
    objectReference: {fileID: 0}
  - target: {fileID: 0}
    propertyPath: _emptyStyle.m_OnNormal.m_TextColor.a
    value: 1
    objectReference: {fileID: 0}
  - target: {fileID: 0}
    propertyPath: _emptyStyle.m_OnHover.m_Background
    value: 
    objectReference: {fileID: 0}
  - target: {fileID: 0}
    propertyPath: _emptyStyle.m_OnHover.m_ScaledBackgrounds.Array.size
    value: 0
    objectReference: {fileID: 0}
  - target: {fileID: 0}
    propertyPath: _emptyStyle.m_OnHover.m_TextColor.r
    value: 0
    objectReference: {fileID: 0}
  - target: {fileID: 0}
    propertyPath: _emptyStyle.m_OnHover.m_TextColor.g
    value: 0
    objectReference: {fileID: 0}
  - target: {fileID: 0}
    propertyPath: _emptyStyle.m_OnHover.m_TextColor.b
    value: 0
    objectReference: {fileID: 0}
  - target: {fileID: 0}
    propertyPath: _emptyStyle.m_OnHover.m_TextColor.a
    value: 1
    objectReference: {fileID: 0}
  - target: {fileID: 0}
    propertyPath: _emptyStyle.m_OnActive.m_Background
    value: 
    objectReference: {fileID: 0}
  - target: {fileID: 0}
    propertyPath: _emptyStyle.m_OnActive.m_ScaledBackgrounds.Array.size
    value: 0
    objectReference: {fileID: 0}
  - target: {fileID: 0}
    propertyPath: _emptyStyle.m_OnActive.m_TextColor.r
    value: 0
    objectReference: {fileID: 0}
  - target: {fileID: 0}
    propertyPath: _emptyStyle.m_OnActive.m_TextColor.g
    value: 0
    objectReference: {fileID: 0}
  - target: {fileID: 0}
    propertyPath: _emptyStyle.m_OnActive.m_TextColor.b
    value: 0
    objectReference: {fileID: 0}
  - target: {fileID: 0}
    propertyPath: _emptyStyle.m_OnActive.m_TextColor.a
    value: 1
    objectReference: {fileID: 0}
  - target: {fileID: 0}
    propertyPath: _emptyStyle.m_OnFocused.m_Background
    value: 
    objectReference: {fileID: 0}
  - target: {fileID: 0}
    propertyPath: _emptyStyle.m_OnFocused.m_ScaledBackgrounds.Array.size
    value: 0
    objectReference: {fileID: 0}
  - target: {fileID: 0}
    propertyPath: _emptyStyle.m_OnFocused.m_TextColor.r
    value: 0
    objectReference: {fileID: 0}
  - target: {fileID: 0}
    propertyPath: _emptyStyle.m_OnFocused.m_TextColor.g
    value: 0
    objectReference: {fileID: 0}
  - target: {fileID: 0}
    propertyPath: _emptyStyle.m_OnFocused.m_TextColor.b
    value: 0
    objectReference: {fileID: 0}
  - target: {fileID: 0}
    propertyPath: _emptyStyle.m_OnFocused.m_TextColor.a
    value: 1
    objectReference: {fileID: 0}
  - target: {fileID: 0}
    propertyPath: _emptyStyle.m_Border.m_Left
    value: 0
    objectReference: {fileID: 0}
  - target: {fileID: 0}
    propertyPath: _emptyStyle.m_Border.m_Right
    value: 0
    objectReference: {fileID: 0}
  - target: {fileID: 0}
    propertyPath: _emptyStyle.m_Border.m_Top
    value: 0
    objectReference: {fileID: 0}
  - target: {fileID: 0}
    propertyPath: _emptyStyle.m_Border.m_Bottom
    value: 0
    objectReference: {fileID: 0}
  - target: {fileID: 0}
    propertyPath: _emptyStyle.m_Margin.m_Left
    value: 0
    objectReference: {fileID: 0}
  - target: {fileID: 0}
    propertyPath: _emptyStyle.m_Margin.m_Right
    value: 0
    objectReference: {fileID: 0}
  - target: {fileID: 0}
    propertyPath: _emptyStyle.m_Margin.m_Top
    value: 0
    objectReference: {fileID: 0}
  - target: {fileID: 0}
    propertyPath: _emptyStyle.m_Margin.m_Bottom
    value: 0
    objectReference: {fileID: 0}
  - target: {fileID: 0}
    propertyPath: _emptyStyle.m_Padding.m_Left
    value: 0
    objectReference: {fileID: 0}
  - target: {fileID: 0}
    propertyPath: _emptyStyle.m_Padding.m_Right
    value: 0
    objectReference: {fileID: 0}
  - target: {fileID: 0}
    propertyPath: _emptyStyle.m_Padding.m_Top
    value: 0
    objectReference: {fileID: 0}
  - target: {fileID: 0}
    propertyPath: _emptyStyle.m_Padding.m_Bottom
    value: 0
    objectReference: {fileID: 0}
  - target: {fileID: 0}
    propertyPath: _emptyStyle.m_Overflow.m_Left
    value: 0
    objectReference: {fileID: 0}
  - target: {fileID: 0}
    propertyPath: _emptyStyle.m_Overflow.m_Right
    value: 0
    objectReference: {fileID: 0}
  - target: {fileID: 0}
    propertyPath: _emptyStyle.m_Overflow.m_Top
    value: 0
    objectReference: {fileID: 0}
  - target: {fileID: 0}
    propertyPath: _emptyStyle.m_Overflow.m_Bottom
    value: 0
    objectReference: {fileID: 0}
  - target: {fileID: 0}
    propertyPath: _emptyStyle.m_Font
    value: 
    objectReference: {fileID: 0}
  - target: {fileID: 0}
    propertyPath: _emptyStyle.m_FontSize
    value: 0
    objectReference: {fileID: 0}
  - target: {fileID: 0}
    propertyPath: _emptyStyle.m_FontStyle
    value: 3
    objectReference: {fileID: 0}
  - target: {fileID: 0}
    propertyPath: _emptyStyle.m_Alignment
    value: 4
    objectReference: {fileID: 0}
  - target: {fileID: 0}
    propertyPath: _emptyStyle.m_WordWrap
    value: 0
    objectReference: {fileID: 0}
  - target: {fileID: 0}
    propertyPath: _emptyStyle.m_RichText
    value: 1
    objectReference: {fileID: 0}
  - target: {fileID: 0}
    propertyPath: _emptyStyle.m_TextClipping
    value: 0
    objectReference: {fileID: 0}
  - target: {fileID: 0}
    propertyPath: _emptyStyle.m_ImagePosition
    value: 0
    objectReference: {fileID: 0}
  - target: {fileID: 0}
    propertyPath: _emptyStyle.m_ContentOffset.x
    value: 0
    objectReference: {fileID: 0}
  - target: {fileID: 0}
    propertyPath: _emptyStyle.m_ContentOffset.y
    value: 0
    objectReference: {fileID: 0}
  - target: {fileID: 0}
    propertyPath: _emptyStyle.m_FixedWidth
    value: 0
    objectReference: {fileID: 0}
  - target: {fileID: 0}
    propertyPath: _emptyStyle.m_FixedHeight
    value: 0
    objectReference: {fileID: 0}
  - target: {fileID: 0}
    propertyPath: _emptyStyle.m_StretchWidth
    value: 1
    objectReference: {fileID: 0}
  - target: {fileID: 0}
    propertyPath: _emptyStyle.m_StretchHeight
    value: 0
    objectReference: {fileID: 0}
